{
    "variants":
    {
        "half=bottom,variant=default": { "model": "primeval:monkeypuzzle_slab_bottom" },
        "half=top,variant=default": { "model": "primeval:monkeypuzzle_slab_top" }
    }
}