{
    "parent": "block/half_slab",
    "textures": {
        "bottom": "primeval:blocks/monkeypuzzle_planks",
        "top": "primeval:blocks/monkeypuzzle_planks",
        "side": "primeval:blocks/monkeypuzzle_planks"
    }
}